{
  "swagger": "2.0",
  "info": {
    "description": "API Game untuk Tugas Challenge Binar oleh Kurniawan Cristianto",
    "version": "1.0.0",
    "title": "Game API",
    "contact": {
      "email": "kurniawancristianto@gmail.com"
    },
    "license": {
      "name": "Apache 2.0",
      "url": "http://www.apache.org/licenses/LICENSE-2.0.html"
    }
  },
  "host": "127.0.0.1:8000",
  "basePath": "/api",
  "tags": [
    {
      "name": "User Game",
      "description": "Informasi dasar mengenai User"
    },
    {
      "name": "User Game Biodata",
      "description": "Informasi biodata lengkap mengenai User"
    },
    {
      "name": "User Game Histories",
      "description": "Informasi Game yang dimainkan User"
    }
  ],
  "paths": {
    "/api/login": {
      "post": {
        "tags": ["User Game"],
        "summary": "Login User",
        "description": "Login User",
        "produces": ["application/json"],
        "responses": {
          "200": {
            "description": "Success",
            "schema": {
              "type": "object",
              "properties": {
                "message": {
                  "type": "string",
                  "example": "Login Success"
                },
                "token": {
                  "type": "string",
                  "example": "abcdefghijklmn"
                }
              }
            }
          },
          "403": {
            "description": "Failed",
            "schema": {
              "type": "object",
              "properties": {
                "message": {
                  "type": "string",
                  "example": "Wrong Username / Password"
                }
              }
            }
          }
        }
      }
    },
    "/api/user": {
      "get": {
        "tags": ["User Game"],
        "summary": "Get all User data",
        "description": "Get all User data",
        "produces": ["application/json"],
        "responses": {
          "200": {
            "description": "Success",
            "schema": {
              "type": "object",
              "properties": {
                "users": {
                  "type": "array",
                  "items": {
                    "type": "object",
                    "properties": {
                      "id": {
                        "type": "integer",
                        "example": 1
                      },
                      "username": {
                        "type": "string",
                        "example": "budi"
                      },
                      "password": {
                        "type": "string",
                        "example": "123456"
                      },
                      "user_game_biodata": {
                        "type": "object",
                        "properties": {
                          "id": {
                            "type": "integer",
                            "example": 1
                          },
                          "first_name": {
                            "type": "string",
                            "example": "Budi"
                          },
                          "last_name": {
                            "type": "string",
                            "example": "Setiawan"
                          },
                          "country": {
                            "type": "string",
                            "example": "Indonesia"
                          },
                          "email": {
                            "type": "string",
                            "example": "budisetiawan@gmail.com"
                          }
                        }
                      }
                    }
                  }
                }
              }
            }
          }
        }
      },
      "post": {
        "tags": ["User Game"],
        "summary": "Create New User data",
        "description": "Create New User data",
        "consumes": ["application/json"],
        "parameters": [
          {
            "in": "body",
            "name": "User",
            "schema": {
              "type": "object",
              "required": ["username", "password"],
              "properties": {
                "username": {
                  "type": "string"
                },
                "password": {
                  "type": "string"
                }
              }
            }
          }
        ],
        "responses": {
          "200": {
            "description": "Success",
            "schema": {
              "type": "object",
              "properties": {
                "id": {
                  "type": "integer",
                  "example": 1
                },
                "username": {
                  "type": "string",
                  "example": "Budi"
                },
                "password": {
                  "type": "string",
                  "example": "123456"
                },
                "token": {
                  "type": "string",
                  "example": "abcdefghijklmn"
                }
              }
            }
          },
          "422": {
            "description": "Validation Error",
            "schema": {
              "type": "object",
              "properties": {
                "error": {
                  "type": "array",
                  "items": {
                    "type": "object",
                    "properties": {
                      "value": {
                        "type": "string"
                      },
                      "msg": {
                        "type": "string"
                      },
                      "param": {
                        "type": "string"
                      },
                      "location": {
                        "type": "string"
                      }
                    }
                  }
                }
              }
            }
          }
        }
      }
    },
    "/api/user/{userId}": {
      "get": {
        "tags": ["User Game"],
        "summary": "Get single User data",
        "description": "Get single User data",
        "parameters": [
          {
            "in": "path",
            "name": "userId",
            "type": "integer",
            "required": true,
            "description": "ID of the User to get"
          }
        ],
        "produces": ["application/json"],
        "responses": {
          "200": {
            "description": "Success",
            "schema": {
              "type": "object",
              "properties": {
                "user": {
                  "type": "object",
                  "properties": {
                    "id": {
                      "type": "integer",
                      "example": 1
                    },
                    "username": {
                      "type": "string",
                      "example": "budi"
                    },
                    "password": {
                      "type": "string",
                      "example": "123456"
                    },
                    "user_game_biodata": {
                      "type": "object",
                      "properties": {
                        "id": {
                          "type": "integer",
                          "example": 1
                        },
                        "user_id": {
                          "type": "integer",
                          "example": 1
                        },
                        "first_name": {
                          "type": "string",
                          "example": "Budi"
                        },
                        "last_name": {
                          "type": "string",
                          "example": "Setiawan"
                        },
                        "country": {
                          "type": "string",
                          "example": "Indonesia"
                        },
                        "email": {
                          "type": "string",
                          "example": "budisetiawan@gmail.com"
                        }
                      }
                    }
                  }
                }
              }
            }
          },
          "422": {
            "description": "Validation Error",
            "schema": {
              "type": "object",
              "properties": {
                "error": {
                  "type": "array",
                  "items": {
                    "type": "object",
                    "properties": {
                      "value": {
                        "type": "string"
                      },
                      "msg": {
                        "type": "string"
                      },
                      "param": {
                        "type": "string"
                      },
                      "location": {
                        "type": "string"
                      }
                    }
                  }
                }
              }
            }
          }
        }
      },
      "patch": {
        "tags": ["User Game"],
        "summary": "Update single User data",
        "description": "Update single User data",
        "parameters": [
          {
            "in": "path",
            "name": "userId",
            "type": "integer",
            "required": true,
            "description": "ID of the User to update"
          },
          {
            "in": "body",
            "name": "User",
            "schema": {
              "type": "object",
              "properties": {
                "username": {
                  "type": "string"
                },
                "password": {
                  "type": "string"
                }
              }
            }
          }
        ],
        "responses": {
          "200": {
            "description": "Success",
            "schema": {
              "type": "object",
              "properties": {
                "beforeUpdate": {
                  "type": "object",
                  "properties": {
                    "id": {
                      "type": "integer",
                      "example": 1
                    },
                    "username": {
                      "type": "string",
                      "example": "Budi"
                    },
                    "password": {
                      "type": "string",
                      "example": "123456"
                    }
                  }
                },
                "afterUpdate": {
                  "type": "object",
                  "properties": {
                    "id": {
                      "type": "integer",
                      "example": 1
                    },
                    "username": {
                      "type": "string",
                      "example": "Tono"
                    },
                    "password": {
                      "type": "string",
                      "example": "123456"
                    }
                  }
                }
              }
            }
          },
          "404": {
            "description": "User Not Found",
            "schema": {
              "type": "object",
              "properties": {
                "message": {
                  "type": "string",
                  "example": "User Not Found"
                }
              }
            }
          },
          "422": {
            "description": "Validation Error",
            "schema": {
              "type": "object",
              "properties": {
                "error": {
                  "type": "array",
                  "items": {
                    "type": "object",
                    "properties": {
                      "value": {
                        "type": "string"
                      },
                      "msg": {
                        "type": "string"
                      },
                      "param": {
                        "type": "string"
                      },
                      "location": {
                        "type": "string"
                      }
                    }
                  }
                }
              }
            }
          }
        }
      },
      "delete": {
        "tags": ["User Game"],
        "summary": "Delete single User data (also with User biodata and Games Histories)",
        "description": "Delete single User data (also with User biodata and Games Histories)",
        "parameters": [
          {
            "in": "path",
            "name": "userId",
            "type": "integer",
            "required": true,
            "description": "ID of the User to delete"
          }
        ],
        "responses": {
          "200": {
            "description": "Success",
            "schema": {
              "type": "object",
              "properties": {
                "deletedUser": {
                  "type": "object",
                  "properties": {
                    "id": {
                      "type": "integer",
                      "example": 1
                    },
                    "username": {
                      "type": "string",
                      "example": "Budi"
                    },
                    "password": {
                      "type": "string",
                      "example": "123456"
                    }
                  }
                }
              }
            }
          },
          "404": {
            "description": "User Not Found",
            "schema": {
              "type": "object",
              "properties": {
                "message": {
                  "type": "string",
                  "example": "User Not Found"
                }
              }
            }
          },
          "422": {
            "description": "Validation Error",
            "schema": {
              "type": "object",
              "properties": {
                "error": {
                  "type": "array",
                  "items": {
                    "type": "object",
                    "properties": {
                      "value": {
                        "type": "string"
                      },
                      "msg": {
                        "type": "string"
                      },
                      "param": {
                        "type": "string"
                      },
                      "location": {
                        "type": "string"
                      }
                    }
                  }
                }
              }
            }
          }
        }
      }
    },
    "/api/biodata/{userId}": {
      "get": {
        "tags": ["User Game Biodata"],
        "summary": "Get single User biodata",
        "description": "Get single User biodata",
        "parameters": [
          {
            "in": "path",
            "name": "userId",
            "type": "integer",
            "required": true,
            "description": "ID of the User to get"
          }
        ],
        "responses": {
          "200": {
            "description": "Success",
            "schema": {
              "type": "object",
              "properties": {
                "biodata": {
                  "type": "object",
                  "properties": {
                    "id": {
                      "type": "integer",
                      "example": 1
                    },
                    "first_name": {
                      "type": "string",
                      "example": "Budi"
                    },
                    "last_name": {
                      "type": "string",
                      "example": "Setiawan"
                    },
                    "country": {
                      "type": "string",
                      "example": "Indonesia"
                    },
                    "email": {
                      "type": "string",
                      "example": "budisetiawan@gmail.com"
                    }
                  }
                }
              }
            }
          },
          "422": {
            "description": "Validation Error",
            "schema": {
              "type": "object",
              "properties": {
                "error": {
                  "type": "array",
                  "items": {
                    "type": "object",
                    "properties": {
                      "value": {
                        "type": "string"
                      },
                      "msg": {
                        "type": "string"
                      },
                      "param": {
                        "type": "string"
                      },
                      "location": {
                        "type": "string"
                      }
                    }
                  }
                }
              }
            }
          }
        }
      },
      "post": {
        "tags": ["User Game Biodata"],
        "summary": "Create New User biodata for existing user",
        "description": "Create New User biodata for existing user",
        "parameters": [
          {
            "in": "path",
            "name": "userId",
            "type": "integer",
            "required": true,
            "description": "ID of the User to create"
          },
          {
            "in": "body",
            "name": "User Biodata",
            "schema": {
              "type": "object",
              "properties": {
                "first_name": {
                  "type": "string"
                },
                "last_name": {
                  "type": "string"
                },
                "country": {
                  "type": "string"
                },
                "email": {
                  "type": "string"
                }
              }
            }
          }
        ],
        "responses": {
          "200": {
            "description": "Success",
            "schema": {
              "type": "object",
              "properties": {
                "biodata": {
                  "type": "object",
                  "properties": {
                    "id": {
                      "type": "integer",
                      "example": 1
                    },
                    "first_name": {
                      "type": "string",
                      "example": "Budi"
                    },
                    "last_name": {
                      "type": "string",
                      "example": "Setiawan"
                    },
                    "country": {
                      "type": "string",
                      "example": "Indonesia"
                    },
                    "email": {
                      "type": "string",
                      "example": "budisetiawan@gmail.com"
                    }
                  }
                }
              }
            }
          },
          "404": {
            "description": "User Not Found",
            "schema": {
              "type": "object",
              "properties": {
                "message": {
                  "type": "string",
                  "example": "User Not Found"
                }
              }
            }
          },
          "409": {
            "description": "User biodata already exists",
            "schema": {
              "type": "object",
              "properties": {
                "message": {
                  "type": "string",
                  "example": "User biodata already exists"
                }
              }
            }
          },
          "422": {
            "description": "Validation Error",
            "schema": {
              "type": "object",
              "properties": {
                "error": {
                  "type": "array",
                  "items": {
                    "type": "object",
                    "properties": {
                      "value": {
                        "type": "string"
                      },
                      "msg": {
                        "type": "string"
                      },
                      "param": {
                        "type": "string"
                      },
                      "location": {
                        "type": "string"
                      }
                    }
                  }
                }
              }
            }
          }
        }
      },
      "patch": {
        "tags": ["User Game Biodata"],
        "summary": "Update User biodata for existing user",
        "description": "Update User biodata for existing user",
        "parameters": [
          {
            "in": "path",
            "name": "userId",
            "type": "integer",
            "required": true,
            "description": "ID of the User to update"
          },
          {
            "in": "body",
            "name": "User Biodata",
            "schema": {
              "type": "object",
              "properties": {
                "first_name": {
                  "type": "string"
                },
                "last_name": {
                  "type": "string"
                },
                "country": {
                  "type": "string"
                },
                "email": {
                  "type": "string"
                }
              }
            }
          }
        ],
        "responses": {
          "200": {
            "description": "Success",
            "schema": {
              "type": "object",
              "properties": {
                "beforeUpdate": {
                  "type": "object",
                  "properties": {
                    "id": {
                      "type": "integer",
                      "example": 1
                    },
                    "first_name": {
                      "type": "string",
                      "example": "Budi"
                    },
                    "last_name": {
                      "type": "string",
                      "example": "Setiawan"
                    },
                    "country": {
                      "type": "string",
                      "example": "Indonesia"
                    },
                    "email": {
                      "type": "string",
                      "example": "budisetiawan@gmail.com"
                    }
                  }
                },
                "afterUpdate": {
                  "type": "object",
                  "properties": {
                    "id": {
                      "type": "integer",
                      "example": 1
                    },
                    "first_name": {
                      "type": "string",
                      "example": "Tono"
                    },
                    "last_name": {
                      "type": "string",
                      "example": "Gunawan"
                    },
                    "country": {
                      "type": "string",
                      "example": "Indonesia"
                    },
                    "email": {
                      "type": "string",
                      "example": "budisetiawan@gmail.com"
                    }
                  }
                }
              }
            }
          },
          "404": {
            "description": "User Not Found",
            "schema": {
              "type": "object",
              "properties": {
                "message": {
                  "type": "string",
                  "example": "User Not Found"
                }
              }
            }
          },
          "422": {
            "description": "Validation Error",
            "schema": {
              "type": "object",
              "properties": {
                "error": {
                  "type": "array",
                  "items": {
                    "type": "object",
                    "properties": {
                      "value": {
                        "type": "string"
                      },
                      "msg": {
                        "type": "string"
                      },
                      "param": {
                        "type": "string"
                      },
                      "location": {
                        "type": "string"
                      }
                    }
                  }
                }
              }
            }
          }
        }
      },
      "delete": {
        "tags": ["User Game Biodata"],
        "summary": "Delete User biodata for existing user",
        "description": "Delete User biodata for existing user",
        "parameters": [
          {
            "in": "path",
            "name": "userId",
            "type": "integer",
            "required": true,
            "description": "ID of the User to delete"
          }
        ],
        "responses": {
          "200": {
            "description": "Success",
            "schema": {
              "type": "object",
              "properties": {
                "deletedBiodata": {
                  "type": "object",
                  "properties": {
                    "id": {
                      "type": "integer",
                      "example": 1
                    },
                    "first_name": {
                      "type": "string",
                      "example": "Budi"
                    },
                    "last_name": {
                      "type": "string",
                      "example": "Setiawan"
                    },
                    "country": {
                      "type": "string",
                      "example": "Indonesia"
                    },
                    "email": {
                      "type": "string",
                      "example": "budisetiawan@gmail.com"
                    }
                  }
                }
              }
            }
          },
          "404": {
            "description": "User Not Found",
            "schema": {
              "type": "object",
              "properties": {
                "message": {
                  "type": "string",
                  "example": "User Not Found"
                }
              }
            }
          },
          "422": {
            "description": "Validation Error",
            "schema": {
              "type": "object",
              "properties": {
                "error": {
                  "type": "array",
                  "items": {
                    "type": "object",
                    "properties": {
                      "value": {
                        "type": "string"
                      },
                      "msg": {
                        "type": "string"
                      },
                      "param": {
                        "type": "string"
                      },
                      "location": {
                        "type": "string"
                      }
                    }
                  }
                }
              }
            }
          }
        }
      }
    },
    "/api/game": {
      "get": {
        "tags": ["User Game Histories"],
        "summary": "Get All Users Game Histories",
        "description": "Get All Users Game Histories",
        "responses": {
          "200": {
            "description": "Success",
            "schema": {
              "type": "object",
              "properties": {
                "games": {
                  "type": "array",
                  "items": {
                    "type": "object",
                    "properties": {
                      "id": {
                        "type": "string",
                        "example": 1
                      },
                      "user_id": {
                        "type": "string",
                        "example": 2
                      },
                      "title": {
                        "type": "string",
                        "example": "Game A"
                      },
                      "publisher": {
                        "type": "string",
                        "example": "Publisher A"
                      },
                      "score": {
                        "type": "integer",
                        "example": 90
                      },
                      "hours_time": {
                        "type": "integer",
                        "example": 20
                      },
                      "user_game": {
                        "type": "object",
                        "properties": {
                          "id": {
                            "type": "integer",
                            "example": 1
                          },
                          "username": {
                            "type": "string",
                            "example": "budi"
                          },
                          "password": {
                            "type": "string",
                            "example": "123456"
                          }
                        }
                      }
                    }
                  }
                }
              }
            }
          }
        }
      }
    },
    "/api/game/{id}": {
      "get": {
        "tags": ["User Game Histories"],
        "summary": "Get All User Game Histories for Single User",
        "description": "Get All User Game Histories for Single User",
        "parameters": [
          {
            "in": "path",
            "name": "id",
            "type": "integer",
            "required": true,
            "description": "ID of the User to get"
          }
        ],
        "responses": {
          "200": {
            "description": "Success",
            "schema": {
              "type": "object",
              "properties": {
                "games": {
                  "type": "array",
                  "items": {
                    "type": "object",
                    "properties": {
                      "id": {
                        "type": "string",
                        "example": 1
                      },
                      "user_id": {
                        "type": "string",
                        "example": 2
                      },
                      "title": {
                        "type": "string",
                        "example": "Game A"
                      },
                      "publisher": {
                        "type": "string",
                        "example": "Publisher A"
                      },
                      "score": {
                        "type": "integer",
                        "example": 90
                      },
                      "hours_time": {
                        "type": "integer",
                        "example": 20
                      },
                      "user_game": {
                        "type": "object",
                        "properties": {
                          "id": {
                            "type": "integer",
                            "example": 1
                          },
                          "username": {
                            "type": "string",
                            "example": "budi"
                          },
                          "password": {
                            "type": "string",
                            "example": "123456"
                          }
                        }
                      }
                    }
                  }
                }
              }
            }
          },
          "422": {
            "description": "Validation Error",
            "schema": {
              "type": "object",
              "properties": {
                "error": {
                  "type": "array",
                  "items": {
                    "type": "object",
                    "properties": {
                      "value": {
                        "type": "string"
                      },
                      "msg": {
                        "type": "string"
                      },
                      "param": {
                        "type": "string"
                      },
                      "location": {
                        "type": "string"
                      }
                    }
                  }
                }
              }
            }
          }
        }
      },
      "post": {
        "tags": ["User Game Histories"],
        "summary": "Create New Game History for Single User",
        "description": "Create New Game History for Single User",
        "parameters": [
          {
            "in": "path",
            "name": "id",
            "type": "integer",
            "required": true,
            "description": "ID of the User to create"
          },
          {
            "in": "body",
            "name": "Game Data",
            "schema": {
              "type": "object",
              "required": ["title", "publisher"],
              "properties": {
                "title": {
                  "type": "string"
                },
                "publisher": {
                  "type": "string"
                },
                "score": {
                  "type": "string"
                },
                "hours_time": {
                  "type": "string"
                }
              }
            }
          }
        ],
        "responses": {
          "200": {
            "description": "Success",
            "schema": {
              "type": "object",
              "properties": {
                "game": {
                  "type": "object",
                  "properties": {
                    "id": {
                      "type": "string",
                      "example": 1
                    },
                    "user_id": {
                      "type": "string",
                      "example": 2
                    },
                    "title": {
                      "type": "string",
                      "example": "Game A"
                    },
                    "publisher": {
                      "type": "string",
                      "example": "Publisher A"
                    },
                    "score": {
                      "type": "integer",
                      "example": 90
                    },
                    "hours_time": {
                      "type": "integer",
                      "example": 20
                    }
                  }
                }
              }
            }
          },
          "422": {
            "description": "Validation Error",
            "schema": {
              "type": "object",
              "properties": {
                "error": {
                  "type": "array",
                  "items": {
                    "type": "object",
                    "properties": {
                      "value": {
                        "type": "string"
                      },
                      "msg": {
                        "type": "string"
                      },
                      "param": {
                        "type": "string"
                      },
                      "location": {
                        "type": "string"
                      }
                    }
                  }
                }
              }
            }
          }
        }
      },
      "patch": {
        "tags": ["User Game Histories"],
        "summary": "Update Single Game History for Single User",
        "description": "Update Single Game History for Single User",
        "parameters": [
          {
            "in": "path",
            "name": "id",
            "type": "integer",
            "required": true,
            "description": "Game ID to updated"
          },
          {
            "in": "body",
            "name": "Game Data",
            "schema": {
              "type": "object",
              "properties": {
                "title": {
                  "type": "string"
                },
                "publisher": {
                  "type": "string"
                },
                "score": {
                  "type": "string"
                },
                "hours_time": {
                  "type": "string"
                }
              }
            }
          }
        ],
        "responses": {
          "200": {
            "description": "Success",
            "schema": {
              "type": "object",
              "properties": {
                "beforeUpdate": {
                  "type": "object",
                  "properties": {
                    "id": {
                      "type": "string",
                      "example": 1
                    },
                    "user_id": {
                      "type": "string",
                      "example": 2
                    },
                    "title": {
                      "type": "string",
                      "example": "Game A"
                    },
                    "publisher": {
                      "type": "string",
                      "example": "Publisher A"
                    },
                    "score": {
                      "type": "integer",
                      "example": 90
                    },
                    "hours_time": {
                      "type": "integer",
                      "example": 20
                    }
                  }
                },
                "afterUpdate": {
                  "type": "object",
                  "properties": {
                    "id": {
                      "type": "string",
                      "example": 1
                    },
                    "user_id": {
                      "type": "string",
                      "example": 2
                    },
                    "title": {
                      "type": "string",
                      "example": "Game A"
                    },
                    "publisher": {
                      "type": "string",
                      "example": "Publisher A"
                    },
                    "score": {
                      "type": "integer",
                      "example": 70
                    },
                    "hours_time": {
                      "type": "integer",
                      "example": 45
                    }
                  }
                }
              }
            }
          },
          "404": {
            "description": "Game History Not Found",
            "schema": {
              "type": "object",
              "properties": {
                "message": {
                  "type": "string",
                  "example": "Game History Not Found"
                }
              }
            }
          },
          "422": {
            "description": "Validation Error",
            "schema": {
              "type": "object",
              "properties": {
                "error": {
                  "type": "array",
                  "items": {
                    "type": "object",
                    "properties": {
                      "value": {
                        "type": "string"
                      },
                      "msg": {
                        "type": "string"
                      },
                      "param": {
                        "type": "string"
                      },
                      "location": {
                        "type": "string"
                      }
                    }
                  }
                }
              }
            }
          }
        }
      },
      "delete": {
        "tags": ["User Game Histories"],
        "summary": "Update Single Game History for Single User",
        "description": "Update Single Game History for Single User",
        "parameters": [
          {
            "in": "path",
            "name": "id",
            "type": "integer",
            "required": true,
            "description": "Game ID to deleted"
          }
        ],
        "responses": {
          "200": {
            "description": "Success",
            "schema": {
              "type": "object",
              "properties": {
                "beforeDeleted": {
                  "type": "object",
                  "properties": {
                    "id": {
                      "type": "string",
                      "example": 1
                    },
                    "user_id": {
                      "type": "string",
                      "example": 2
                    },
                    "title": {
                      "type": "string",
                      "example": "Game A"
                    },
                    "publisher": {
                      "type": "string",
                      "example": "Publisher A"
                    },
                    "score": {
                      "type": "integer",
                      "example": 70
                    },
                    "hours_time": {
                      "type": "integer",
                      "example": 45
                    }
                  }
                }
              }
            }
          },
          "404": {
            "description": "Game History Not Found",
            "schema": {
              "type": "object",
              "properties": {
                "message": {
                  "type": "string",
                  "example": "Game History Not Found"
                }
              }
            }
          },
          "422": {
            "description": "Validation Error",
            "schema": {
              "type": "object",
              "properties": {
                "error": {
                  "type": "array",
                  "items": {
                    "type": "object",
                    "properties": {
                      "value": {
                        "type": "string"
                      },
                      "msg": {
                        "type": "string"
                      },
                      "param": {
                        "type": "string"
                      },
                      "location": {
                        "type": "string"
                      }
                    }
                  }
                }
              }
            }
          }
        }
      }
    }
  }
}
